<svg style="width: 1em; height 1em" viewBox="0 0 252 252" fill="none" xmlns="http://www.w3.org/2000/svg">
<path d="M37.8 99.4286C51.6994 99.4286 63 88.1536 63 74.2857C63 60.4179 51.6994 49.1429 37.8 49.1429C23.9006 49.1429 12.6 60.4179 12.6 74.2857C12.6 88.1536 23.9006 99.4286 37.8 99.4286ZM214.2 99.4286C228.099 99.4286 239.4 88.1536 239.4 74.2857C239.4 60.4179 228.099 49.1429 214.2 49.1429C200.301 49.1429 189 60.4179 189 74.2857C189 88.1536 200.301 99.4286 214.2 99.4286ZM226.8 112H201.6C194.67 112 188.409 114.789 183.842 119.307C199.71 127.989 210.971 143.664 213.413 162.286H239.4C246.369 162.286 252 156.668 252 149.714V137.143C252 123.275 240.699 112 226.8 112ZM126 112C150.373 112 170.1 92.3179 170.1 68C170.1 43.6821 150.373 24 126 24C101.627 24 81.9 43.6821 81.9 68C81.9 92.3179 101.627 112 126 112ZM156.24 124.571H152.972C144.782 128.5 135.686 130.857 126 130.857C116.314 130.857 107.258 128.5 99.0281 124.571H95.76C70.7175 124.571 50.4 144.843 50.4 169.829V181.143C50.4 191.554 58.8656 200 69.3 200H182.7C193.134 200 201.6 191.554 201.6 181.143V169.829C201.6 144.843 181.283 124.571 156.24 124.571ZM68.1581 119.307C63.5906 114.789 57.33 112 50.4 112H25.2C11.3006 112 0 123.275 0 137.143V149.714C0 156.668 5.63062 162.286 12.6 162.286H38.5481C41.0288 143.664 52.29 127.989 68.1581 119.307Z" fill="currentColor"/>
<path class="border-4 border-bg-background" d="M252 138.939C252 135.549 249.343 133 246.332 133C245.767 133 245.19 133.089 244.615 133.28L190.662 151.093C188.304 151.872 186.688 154.152 186.688 156.75V202.164C183.531 199.795 179.396 198.312 174.812 198.312C164.975 198.312 157 204.959 157 213.156C157 221.354 164.975 228 174.812 228C184.65 228 192.625 221.354 192.625 213.156V180.5L246.062 162.688V190.289C242.906 187.92 238.771 186.438 234.188 186.438C224.35 186.438 216.375 193.084 216.375 201.281C216.375 209.479 224.35 216.125 234.188 216.125C244.025 216.125 252 209.479 252 201.281C252 201.276 251.998 201.272 251.998 201.266L252 138.939ZM174.812 222.062C168.376 222.062 162.938 217.984 162.938 213.156C162.938 208.328 168.376 204.25 174.812 204.25C181.249 204.25 186.688 208.328 186.688 213.156C186.688 217.984 181.249 222.062 174.812 222.062ZM246.062 156.429L192.625 174.242V156.75H192.523V156.73L246.062 139.054V156.429V156.429ZM234.188 210.188C227.751 210.188 222.312 206.109 222.312 201.281C222.312 196.453 227.751 192.375 234.188 192.375C240.624 192.375 246.062 196.453 246.062 201.281C246.062 206.109 240.624 210.188 234.188 210.188Z" fill="currentColor"/>
</svg>
