<svg class="w-em h-em" viewBox="0 0 30 28" fill="currentColor" xmlns="http://www.w3.org/2000/svg">
<path d="M27.2578 0H1.81946C0.205183 0 -0.609311 1.88601 0.5344 2.98741L10.9038 12.9749V23.1875C10.9038 23.4369 10.9592 23.6835 11.0662 23.9106C11.1733 24.1378 11.3295 24.3402 11.5245 24.5045L15.1591 27.5661C16.3198 28.544 18.1731 27.7673 18.1731 26.2491V12.9749L28.5428 2.98741C29.6843 1.88825 28.8753 0 27.2578 0ZM16.3558 12.25V26.25L12.7212 23.1875V12.25L1.81731 1.75H27.2596L16.3558 12.25Z"/>
</svg>
